{
  "resourceType": "Bundle",
  "type": "transaction",
  "entry": [
    {
      "resource": {
        "resourceType": "Patient",
        "id": "SMART-2080416",
        "text": {
          "status": "generated",
          "div": "<div xmlns=\"http://www.w3.org/1999/xhtml\">\n        <p>Joseph Shaw</p>\n      </div>"
        },
        "identifier": [
          {
            "use": "usual",
            "type": {
              "coding": [
                {
                  "system": "http://hl7.org/fhir/v2/0203",
                  "code": "MR",
                  "display": "Medical record number",
                  "userSelected": false
                }
              ],
              "text": "Medical record number"
            },
            "system": "http://hospital.smarthealthit.org",
            "value": "2080416"
          }
        ],
        "active": true,
        "name": [
          {
            "use": "official",
            "family": "Shaw",
            "given": [
              "Joseph",
              "P."
            ]
          }
        ],
        "telecom": [
          {
            "system": "phone",
            "value": "800-277-1993",
            "use": "mobile"
          },
          {
            "system": "email",
            "value": "joseph.shaw@example.com"
          }
        ],
        "gender": "male",
        "birthDate": "2003-12-14",
        "address": [
          {
            "use": "home",
            "line": [
              "53 Sunset AveApt 9"
            ],
            "city": "Tulsa",
            "state": "OK",
            "postalCode": "74126",
            "country": "USA"
          }
        ]
      },
      "request": {
        "method": "PUT",
        "url": "Patient/SMART-2080416"
      }
    },
    {
      "resource": {
        "resourceType": "MedicationRequest",
        "id": "SMART-MedicationRequest-219",
        "text": {
          "status": "generated",
          "div": "<div xmlns=\"http://www.w3.org/1999/xhtml\">\n      Erythromycin 0.005 MG/MG Ophthalmic Ointment (rxnorm: 310149)\n    </div>"
        },
        "status": "active",
        "medicationCodeableConcept": {
          "coding": [
            {
              "system": "http://www.nlm.nih.gov/research/umls/rxnorm",
              "code": "310149",
              "display": "Erythromycin 0.005 MG/MG Ophthalmic Ointment",
              "userSelected": false
            }
          ],
          "text": "Erythromycin 0.005 MG/MG Ophthalmic Ointment"
        },
        "subject": {
          "reference": "Patient/SMART-2080416"
        },
        "dosageInstruction": [
          {
            "text": "1/4 inch in eye bid x5 days",
            "timing": {
              "repeat": {
                "boundsPeriod": {
                  "start": "2004-05-09T00:00:00-06:00"
                },
                "count": 0,
                "frequency": 2,
                "frequencyMax": 0,
                "period": 1,
                "periodUnit": "d"
              }
            }
          }
        ],
        "dispenseRequest": {
          "numberOfRepeatsAllowed": 1,
          "quantity": {
            "value": 3,
            "unit": "[in_us]",
            "system": "http://unitsofmeasure.org",
            "code": "[in_us]"
          },
          "expectedSupplyDuration": {
            "value": 5,
            "unit": "days",
            "system": "http://unitsofmeasure.org",
            "code": "d"
          }
        }
      },
      "request": {
        "method": "PUT",
        "url": "MedicationRequest/SMART-MedicationRequest-219"
      }
    },
    {
      "resource": {
        "resourceType": "MedicationDispense",
        "id": "SMART-MedicationDispense-89",
        "text": {
          "status": "generated",
          "div": "<div xmlns=\"http://www.w3.org/1999/xhtml\">\n      Dispensed 3 tablets = 5 day supply of Erythromycin 0.005 MG/MG Ophthalmic Ointment\n    </div>"
        },
        "status": "completed",
        "medicationCodeableConcept": {
          "coding": [
            {
              "system": "http://www.nlm.nih.gov/research/umls/rxnorm",
              "code": "310149",
              "display": "Erythromycin 0.005 MG/MG Ophthalmic Ointment",
              "userSelected": false
            }
          ],
          "text": "Erythromycin 0.005 MG/MG Ophthalmic Ointment"
        },
        "subject": {
          "reference": "Patient/SMART-2080416"
        },
        "authorizingPrescription": [
          {
            "reference": "MedicationRequest/SMART-MedicationRequest-219"
          }
        ],
        "quantity": {
          "value": 3,
          "unit": "tablets",
          "system": "http://unitsofmeasure.org",
          "code": "{tablets}"
        },
        "daysSupply": {
          "value": 5,
          "unit": "days",
          "system": "http://unitsofmeasure.org",
          "code": "d"
        },
        "whenHandedOver": "2004-05-09T00:00:00-06:00"
      },
      "request": {
        "method": "PUT",
        "url": "MedicationDispense/SMART-MedicationDispense-89"
      }
    },
    {
      "resource": {
        "resourceType": "MedicationRequest",
        "id": "SMART-MedicationRequest-220",
        "text": {
          "status": "generated",
          "div": "<div xmlns=\"http://www.w3.org/1999/xhtml\">\n      Amoxicillin 50 MG/ML Oral Suspension (rxnorm: 239191)\n    </div>"
        },
        "status": "active",
        "medicationCodeableConcept": {
          "coding": [
            {
              "system": "http://www.nlm.nih.gov/research/umls/rxnorm",
              "code": "239191",
              "display": "Amoxicillin 50 MG/ML Oral Suspension",
              "userSelected": false
            }
          ],
          "text": "Amoxicillin 50 MG/ML Oral Suspension"
        },
        "subject": {
          "reference": "Patient/SMART-2080416"
        },
        "dosageInstruction": [
          {
            "text": "10 mL bid x 10 days",
            "timing": {
              "repeat": {
                "boundsPeriod": {
                  "start": "2004-11-06T00:00:00-07:00"
                },
                "count": 0,
                "frequency": 2,
                "frequencyMax": 0,
                "period": 1,
                "periodUnit": "d"
              }
            },
            "doseQuantity": {
              "value": 10,
              "unit": "mL",
              "system": "http://unitsofmeasure.org",
              "code": "mL"
            }
          }
        ],
        "dispenseRequest": {
          "numberOfRepeatsAllowed": 1,
          "quantity": {
            "value": 1,
            "unit": "mL",
            "system": "http://unitsofmeasure.org",
            "code": "mL"
          },
          "expectedSupplyDuration": {
            "value": 10,
            "unit": "days",
            "system": "http://unitsofmeasure.org",
            "code": "d"
          }
        }
      },
      "request": {
        "method": "PUT",
        "url": "MedicationRequest/SMART-MedicationRequest-220"
      }
    },
    {
      "resource": {
        "resourceType": "MedicationDispense",
        "id": "SMART-MedicationDispense-92",
        "text": {
          "status": "generated",
          "div": "<div xmlns=\"http://www.w3.org/1999/xhtml\">\n      Dispensed 150 tablets = 10 day supply of Amoxicillin 50 MG/ML Oral Suspension\n    </div>"
        },
        "status": "completed",
        "medicationCodeableConcept": {
          "coding": [
            {
              "system": "http://www.nlm.nih.gov/research/umls/rxnorm",
              "code": "239191",
              "display": "Amoxicillin 50 MG/ML Oral Suspension",
              "userSelected": false
            }
          ],
          "text": "Amoxicillin 50 MG/ML Oral Suspension"
        },
        "subject": {
          "reference": "Patient/SMART-2080416"
        },
        "authorizingPrescription": [
          {
            "reference": "MedicationRequest/SMART-MedicationRequest-220"
          }
        ],
        "quantity": {
          "value": 150,
          "unit": "tablets",
          "system": "http://unitsofmeasure.org",
          "code": "{tablets}"
        },
        "daysSupply": {
          "value": 10,
          "unit": "days",
          "system": "http://unitsofmeasure.org",
          "code": "d"
        },
        "whenHandedOver": "2004-11-06T00:00:00-07:00"
      },
      "request": {
        "method": "PUT",
        "url": "MedicationDispense/SMART-MedicationDispense-92"
      }
    },
    {
      "resource": {
        "resourceType": "MedicationRequest",
        "id": "SMART-MedicationRequest-221",
        "text": {
          "status": "generated",
          "div": "<div xmlns=\"http://www.w3.org/1999/xhtml\">\n      Albuterol 0.83 MG/ML Inhalant Solution (rxnorm: 630208)\n    </div>"
        },
        "status": "active",
        "medicationCodeableConcept": {
          "coding": [
            {
              "system": "http://www.nlm.nih.gov/research/umls/rxnorm",
              "code": "630208",
              "display": "Albuterol 0.83 MG/ML Inhalant Solution",
              "userSelected": false
            }
          ],
          "text": "Albuterol 0.83 MG/ML Inhalant Solution"
        },
        "subject": {
          "reference": "Patient/SMART-2080416"
        },
        "dosageInstruction": [
          {
            "text": "1 nev q4h prn",
            "timing": {
              "repeat": {
                "boundsPeriod": {
                  "start": "2008-08-19T00:00:00-06:00"
                },
                "count": 0,
                "frequency": 6,
                "frequencyMax": 0,
                "period": 1,
                "periodUnit": "d"
              }
            },
            "asNeededBoolean": true,
            "doseQuantity": {
              "value": 1,
              "unit": "{dose}",
              "system": "http://unitsofmeasure.org",
              "code": "{dose}"
            }
          }
        ],
        "dispenseRequest": {
          "numberOfRepeatsAllowed": 1,
          "quantity": {
            "value": 75,
            "unit": "{dose}",
            "system": "http://unitsofmeasure.org",
            "code": "{dose}"
          },
          "expectedSupplyDuration": {
            "value": 4,
            "unit": "days",
            "system": "http://unitsofmeasure.org",
            "code": "d"
          }
        }
      },
      "request": {
        "method": "PUT",
        "url": "MedicationRequest/SMART-MedicationRequest-221"
      }
    },
    {
      "resource": {
        "resourceType": "MedicationDispense",
        "id": "SMART-MedicationDispense-91",
        "text": {
          "status": "generated",
          "div": "<div xmlns=\"http://www.w3.org/1999/xhtml\">\n      Dispensed 75 tablets = 4 day supply of Albuterol 0.83 MG/ML Inhalant Solution\n    </div>"
        },
        "status": "completed",
        "medicationCodeableConcept": {
          "coding": [
            {
              "system": "http://www.nlm.nih.gov/research/umls/rxnorm",
              "code": "630208",
              "display": "Albuterol 0.83 MG/ML Inhalant Solution",
              "userSelected": false
            }
          ],
          "text": "Albuterol 0.83 MG/ML Inhalant Solution"
        },
        "subject": {
          "reference": "Patient/SMART-2080416"
        },
        "authorizingPrescription": [
          {
            "reference": "MedicationRequest/SMART-MedicationRequest-221"
          }
        ],
        "quantity": {
          "value": 75,
          "unit": "tablets",
          "system": "http://unitsofmeasure.org",
          "code": "{tablets}"
        },
        "daysSupply": {
          "value": 4,
          "unit": "days",
          "system": "http://unitsofmeasure.org",
          "code": "d"
        },
        "whenHandedOver": "2009-05-19T00:00:00-06:00"
      },
      "request": {
        "method": "PUT",
        "url": "MedicationDispense/SMART-MedicationDispense-91"
      }
    },
    {
      "resource": {
        "resourceType": "MedicationDispense",
        "id": "SMART-MedicationDispense-90",
        "text": {
          "status": "generated",
          "div": "<div xmlns=\"http://www.w3.org/1999/xhtml\">\n      Dispensed 75 tablets = 4 day supply of Albuterol 0.83 MG/ML Inhalant Solution\n    </div>"
        },
        "status": "completed",
        "medicationCodeableConcept": {
          "coding": [
            {
              "system": "http://www.nlm.nih.gov/research/umls/rxnorm",
              "code": "630208",
              "display": "Albuterol 0.83 MG/ML Inhalant Solution",
              "userSelected": false
            }
          ],
          "text": "Albuterol 0.83 MG/ML Inhalant Solution"
        },
        "subject": {
          "reference": "Patient/SMART-2080416"
        },
        "authorizingPrescription": [
          {
            "reference": "MedicationRequest/SMART-MedicationRequest-221"
          }
        ],
        "quantity": {
          "value": 75,
          "unit": "tablets",
          "system": "http://unitsofmeasure.org",
          "code": "{tablets}"
        },
        "daysSupply": {
          "value": 4,
          "unit": "days",
          "system": "http://unitsofmeasure.org",
          "code": "d"
        },
        "whenHandedOver": "2008-08-19T00:00:00-06:00"
      },
      "request": {
        "method": "PUT",
        "url": "MedicationDispense/SMART-MedicationDispense-90"
      }
    },
    {
      "resource": {
        "resourceType": "Condition",
        "id": "SMART-Condition-57",
        "text": {
          "status": "generated",
          "div": "<div xmlns=\"http://www.w3.org/1999/xhtml\">Vomiting</div>"
        },
        "clinicalStatus": "active",
        "verificationStatus": "confirmed",
        "code": {
          "coding": [
            {
              "system": "http://snomed.info/sct",
              "code": "422400008",
              "display": "Vomiting",
              "userSelected": false
            }
          ],
          "text": "Vomiting"
        },
        "subject": {
          "reference": "Patient/SMART-2080416"
        },
        "onsetDateTime": "2004-03-23T00:00:00-07:00"
      },
      "request": {
        "method": "PUT",
        "url": "Condition/SMART-Condition-57"
      }
    },
    {
      "resource": {
        "resourceType": "Condition",
        "id": "SMART-Condition-58",
        "text": {
          "status": "generated",
          "div": "<div xmlns=\"http://www.w3.org/1999/xhtml\">Feeding difficulties and mismanagement</div>"
        },
        "clinicalStatus": "active",
        "verificationStatus": "confirmed",
        "code": {
          "coding": [
            {
              "system": "http://snomed.info/sct",
              "code": "78164000",
              "display": "Feeding difficulties and mismanagement",
              "userSelected": false
            }
          ],
          "text": "Feeding difficulties and mismanagement"
        },
        "subject": {
          "reference": "Patient/SMART-2080416"
        },
        "onsetDateTime": "2004-03-26T00:00:00-07:00"
      },
      "request": {
        "method": "PUT",
        "url": "Condition/SMART-Condition-58"
      }
    },
    {
      "resource": {
        "resourceType": "Condition",
        "id": "SMART-Condition-59",
        "text": {
          "status": "generated",
          "div": "<div xmlns=\"http://www.w3.org/1999/xhtml\">Feeding problems in newborn</div>"
        },
        "clinicalStatus": "active",
        "verificationStatus": "confirmed",
        "code": {
          "coding": [
            {
              "system": "http://snomed.info/sct",
              "code": "72552008",
              "display": "Feeding problems in newborn",
              "userSelected": false
            }
          ],
          "text": "Feeding problems in newborn"
        },
        "subject": {
          "reference": "Patient/SMART-2080416"
        },
        "onsetDateTime": "2004-04-01T00:00:00-07:00"
      },
      "request": {
        "method": "PUT",
        "url": "Condition/SMART-Condition-59"
      }
    },
    {
      "resource": {
        "resourceType": "Condition",
        "id": "SMART-Condition-60",
        "text": {
          "status": "generated",
          "div": "<div xmlns=\"http://www.w3.org/1999/xhtml\">Cough</div>"
        },
        "clinicalStatus": "active",
        "verificationStatus": "confirmed",
        "code": {
          "coding": [
            {
              "system": "http://snomed.info/sct",
              "code": "49727002",
              "display": "Cough",
              "userSelected": false
            }
          ],
          "text": "Cough"
        },
        "subject": {
          "reference": "Patient/SMART-2080416"
        },
        "onsetDateTime": "2004-05-10T00:00:00-06:00"
      },
      "request": {
        "method": "PUT",
        "url": "Condition/SMART-Condition-60"
      }
    },
    {
      "resource": {
        "resourceType": "Condition",
        "id": "SMART-Condition-61",
        "text": {
          "status": "generated",
          "div": "<div xmlns=\"http://www.w3.org/1999/xhtml\">Finding of head and neck region</div>"
        },
        "clinicalStatus": "active",
        "verificationStatus": "confirmed",
        "code": {
          "coding": [
            {
              "system": "http://snomed.info/sct",
              "code": "274667000",
              "display": "Finding of head and neck region",
              "userSelected": false
            }
          ],
          "text": "Finding of head and neck region"
        },
        "subject": {
          "reference": "Patient/SMART-2080416"
        },
        "onsetDateTime": "2004-05-10T00:00:00-06:00"
      },
      "request": {
        "method": "PUT",
        "url": "Condition/SMART-Condition-61"
      }
    },
    {
      "resource": {
        "resourceType": "Condition",
        "id": "SMART-Condition-62",
        "text": {
          "status": "generated",
          "div": "<div xmlns=\"http://www.w3.org/1999/xhtml\">Apnea</div>"
        },
        "clinicalStatus": "active",
        "verificationStatus": "confirmed",
        "code": {
          "coding": [
            {
              "system": "http://snomed.info/sct",
              "code": "1023001",
              "display": "Apnea",
              "userSelected": false
            }
          ],
          "text": "Apnea"
        },
        "subject": {
          "reference": "Patient/SMART-2080416"
        },
        "onsetDateTime": "2004-09-02T00:00:00-06:00"
      },
      "request": {
        "method": "PUT",
        "url": "Condition/SMART-Condition-62"
      }
    },
    {
      "resource": {
        "resourceType": "Condition",
        "id": "SMART-Condition-63",
        "text": {
          "status": "generated",
          "div": "<div xmlns=\"http://www.w3.org/1999/xhtml\">Acute secretory otitis media</div>"
        },
        "clinicalStatus": "active",
        "verificationStatus": "confirmed",
        "code": {
          "coding": [
            {
              "system": "http://snomed.info/sct",
              "code": "35183001",
              "display": "Acute secretory otitis media",
              "userSelected": false
            }
          ],
          "text": "Acute secretory otitis media"
        },
        "subject": {
          "reference": "Patient/SMART-2080416"
        },
        "onsetDateTime": "2004-11-06T00:00:00-07:00"
      },
      "request": {
        "method": "PUT",
        "url": "Condition/SMART-Condition-63"
      }
    },
    {
      "resource": {
        "resourceType": "Condition",
        "id": "SMART-Condition-64",
        "text": {
          "status": "generated",
          "div": "<div xmlns=\"http://www.w3.org/1999/xhtml\">Fever and other physiologic disturbances of temperature regulation</div>"
        },
        "clinicalStatus": "active",
        "verificationStatus": "confirmed",
        "code": {
          "coding": [
            {
              "system": "http://snomed.info/sct",
              "code": "386661006",
              "display": "Fever and other physiologic disturbances of temperature regulation",
              "userSelected": false
            }
          ],
          "text": "Fever and other physiologic disturbances of temperature regulation"
        },
        "subject": {
          "reference": "Patient/SMART-2080416"
        },
        "onsetDateTime": "2005-03-06T00:00:00-07:00"
      },
      "request": {
        "method": "PUT",
        "url": "Condition/SMART-Condition-64"
      }
    },
    {
      "resource": {
        "resourceType": "Condition",
        "id": "SMART-Condition-65",
        "text": {
          "status": "generated",
          "div": "<div xmlns=\"http://www.w3.org/1999/xhtml\">Otitis media</div>"
        },
        "clinicalStatus": "active",
        "verificationStatus": "confirmed",
        "code": {
          "coding": [
            {
              "system": "http://snomed.info/sct",
              "code": "65363002",
              "display": "Otitis media",
              "userSelected": false
            }
          ],
          "text": "Otitis media"
        },
        "subject": {
          "reference": "Patient/SMART-2080416"
        },
        "onsetDateTime": "2005-03-06T00:00:00-07:00"
      },
      "request": {
        "method": "PUT",
        "url": "Condition/SMART-Condition-65"
      }
    },
    {
      "resource": {
        "resourceType": "Observation",
        "id": "SMART-Observation-4-smokingstatus",
        "text": {
          "status": "generated",
          "div": "<div xmlns=\"http://www.w3.org/1999/xhtml\">Tobacco smoking status: Former smoker</div>"
        },
        "status": "final",
        "category": [
          {
            "coding": [
              {
                "system": "http://hl7.org/fhir/observation-category",
                "code": "social-history",
                "display": "Social History",
                "userSelected": false
              }
            ],
            "text": "Social History"
          }
        ],
        "code": {
          "coding": [
            {
              "system": "http://loinc.org",
              "code": "72166-2",
              "display": "Tobacco smoking status",
              "userSelected": false
            }
          ],
          "text": "Tobacco smoking status"
        },
        "subject": {
          "reference": "Patient/SMART-2080416"
        },
        "valueCodeableConcept": {
          "coding": [
            {
              "system": "http://snomed.info/sct",
              "code": "8517006",
              "display": "Former smoker",
              "userSelected": false
            }
          ],
          "text": "Former smoker"
        }
      },
      "request": {
        "method": "PUT",
        "url": "Observation/SMART-Observation-4-smokingstatus"
      }
    },
    {
      "resource": {
        "resourceType": "Observation",
        "id": "SMART-Observation-2080416-gestage",
        "text": {
          "status": "generated",
          "div": "<div xmlns=\"http://www.w3.org/1999/xhtml\">2003-12-14: Gestational age at birth = 36.7 weeks</div>"
        },
        "status": "final",
        "category": [
          {
            "coding": [
              {
                "system": "http://hl7.org/fhir/observation-category",
                "code": "exam",
                "display": "Exam",
                "userSelected": false
              }
            ],
            "text": "Exam"
          }
        ],
        "code": {
          "coding": [
            {
              "system": "http://loinc.org",
              "code": "18185-9",
              "display": "Gestational age at birth",
              "userSelected": false
            }
          ],
          "text": "Gestational age at birth"
        },
        "subject": {
          "reference": "Patient/SMART-2080416"
        },
        "effectiveDateTime": "2003-12-14T00:00:00-07:00",
        "valueQuantity": {
          "value": 36.7,
          "unit": "weeks",
          "system": "http://unitsofmeasure.org",
          "code": "wk"
        }
      },
      "request": {
        "method": "PUT",
        "url": "Observation/SMART-Observation-2080416-gestage"
      }
    },
    {
      "resource": {
        "resourceType": "List",
        "id": "SMART-List-47",
        "text": {
          "status": "generated",
          "div": "<div xmlns=\"http://www.w3.org/1999/xhtml\">No known allergies</div>"
        },
        "mode": "snapshot",
        "code": {
          "coding": [
            {
              "system": "http://loinc.org/",
              "code": "52473-6",
              "display": "Allergy",
              "userSelected": false
            }
          ],
          "text": "Allergy"
        },
        "subject": {
          "reference": "Patient/SMART-2080416"
        },
        "date": "2000-01-01T00:00:00-07:00"
      },
      "request": {
        "method": "PUT",
        "url": "List/SMART-List-47"
      }
    }
  ]
}